[gd_scene load_steps=2 format=3 uid="uid://b48l3x6ld2bx0"]

[ext_resource type="Script" path="res://Main.gd" id="1_uweck"]

[node name="Main" type="Node2D"]
script = ExtResource("1_uweck")

[node name="Camera2D" type="Camera2D" parent="."]

[node name="CanvasLayer" type="CanvasLayer" parent="."]

[node name="Button" type="Button" parent="CanvasLayer"]
offset_right = 8.0
offset_bottom = 8.0
text = "Reset"

[connection signal="pressed" from="CanvasLayer/Button" to="." method="_on_reset"]
